Self Note of Forecasting: Principles and Practice - 2 Time Series Graphics
…
2  Time Series Graphics

2.1 tsibble objects

library(fpp3)

olympic_running

# A tsibble: 312 x 4 [4Y]
# Key:       Length, Sex [14]
    Year Length Sex    Time
   <int>  <int> <chr> <dbl>
 1  1896    100 men    12  
 2  1900    100 men    11  
 3  1904    100 men    11  
 4  1908    100 men    10.8
 5  1912    100 men    10.8
 6  1916    100 men    NA  
 7  1920    100 men    10.8
 8  1924    100 men    10.6
 9  1928    100 men    10.8
10  1932    100 men    10.3
# ℹ 302 more rows

[4Y] => Its a every four year data

There are 14 time series based on the Length and Sex variable.

PBS

# A tsibble: 67,596 x 9 [1M]
# Key:       Concession, Type, ATC1, ATC2 [336]
      Month Concession   Type      ATC1  ATC1_desc ATC2  ATC2_desc Scripts  Cost
      <mth> <chr>        <chr>     <chr> <chr>     <chr> <chr>       <dbl> <dbl>
 1 1991 Jul Concessional Co-payme… A     Alimenta… A01   STOMATOL…   18228 67877
 2 1991 Aug Concessional Co-payme… A     Alimenta… A01   STOMATOL…   15327 57011
 3 1991 Sep Concessional Co-payme… A     Alimenta… A01   STOMATOL…   14775 55020
 4 1991 Oct Concessional Co-payme… A     Alimenta… A01   STOMATOL…   15380 57222
 5 1991 Nov Concessional Co-payme… A     Alimenta… A01   STOMATOL…   14371 52120
 6 1991 Dec Concessional Co-payme… A     Alimenta… A01   STOMATOL…   15028 54299
 7 1992 Jan Concessional Co-payme… A     Alimenta… A01   STOMATOL…   11040 39753
 8 1992 Feb Concessional Co-payme… A     Alimenta… A01   STOMATOL…   15165 54405
 9 1992 Mar Concessional Co-payme… A     Alimenta… A01   STOMATOL…   16898 61108
10 1992 Apr Concessional Co-payme… A     Alimenta… A01   STOMATOL…   18141 65356
# ℹ 67,586 more rows

PBS %>% 
  filter(ATC2 == 'A10') %>% 
  select(Month, Concession, Type, Cost)

# A tsibble: 816 x 4 [1M]
# Key:       Concession, Type [4]
      Month Concession   Type           Cost
      <mth> <chr>        <chr>         <dbl>
 1 1991 Jul Concessional Co-payments 2092878
 2 1991 Aug Concessional Co-payments 1795733
 3 1991 Sep Concessional Co-payments 1777231
 4 1991 Oct Concessional Co-payments 1848507
 5 1991 Nov Concessional Co-payments 1686458
 6 1991 Dec Concessional Co-payments 1843079
 7 1992 Jan Concessional Co-payments 1564702
 8 1992 Feb Concessional Co-payments 1732508
 9 1992 Mar Concessional Co-payments 2046102
10 1992 Apr Concessional Co-payments 2225977
# ℹ 806 more rows

Note that the index variable Month, and the keys Concession and Type, would be returned even if they were not explicitly selected as they are required for a tsibble (to ensure each row contains a unique combination of keys and index).

PBS %>% 
  filter(ATC2 == 'A10') %>% 
  select(Month, Concession, Type, Cost) %>% 
  summarize(total = sum(Cost))

# A tsibble: 204 x 2 [1M]
      Month   total
      <mth>   <dbl>
 1 1991 Jul 3526591
 2 1991 Aug 3180891
 3 1991 Sep 3252221
 4 1991 Oct 3611003
 5 1991 Nov 3565869
 6 1991 Dec 4306371
 7 1992 Jan 5088335
 8 1992 Feb 2814520
 9 1992 Mar 2985811
10 1992 Apr 3204780
# ℹ 194 more rows
…
prison %>% 
  mutate(Quarter = yearquarter(Date)) %>% 
  select(-Date) %>% 
  as_tsibble(
    key = c(State, Gender, Legal, Indigenous),
    index = Quarter
  ) -> prison

prison

# A tsibble: 3,072 x 6 [1Q]
# Key:       State, Gender, Legal, Indigenous [64]
   State Gender Legal    Indigenous Count Quarter
   <chr> <chr>  <chr>    <chr>      <dbl>   <qtr>
 1 ACT   Female Remanded ATSI           0 2005 Q1
 2 ACT   Female Remanded ATSI           1 2005 Q2
 3 ACT   Female Remanded ATSI           0 2005 Q3
 4 ACT   Female Remanded ATSI           0 2005 Q4
 5 ACT   Female Remanded ATSI           1 2006 Q1
 6 ACT   Female Remanded ATSI           1 2006 Q2
 7 ACT   Female Remanded ATSI           1 2006 Q3
 8 ACT   Female Remanded ATSI           0 2006 Q4
 9 ACT   Female Remanded ATSI           0 2007 Q1
10 ACT   Female Remanded ATSI           1 2007 Q2
# ℹ 3,062 more rows
…
tourism

# A tsibble: 24,320 x 5 [1Q]
# Key:       Region, State, Purpose [304]
   Quarter Region   State           Purpose  Trips
     <qtr> <chr>    <chr>           <chr>    <dbl>
 1 1998 Q1 Adelaide South Australia Business  135.
 2 1998 Q2 Adelaide South Australia Business  110.
 3 1998 Q3 Adelaide South Australia Business  166.
 4 1998 Q4 Adelaide South Australia Business  127.
 5 1999 Q1 Adelaide South Australia Business  137.
 6 1999 Q2 Adelaide South Australia Business  200.
 7 1999 Q3 Adelaide South Australia Business  169.
 8 1999 Q4 Adelaide South Australia Business  134.
 9 2000 Q1 Adelaide South Australia Business  154.
10 2000 Q2 Adelaide South Australia Business  169.
# ℹ 24,310 more rows

tourism %>% 
  filter(Purpose == 'Holiday') %>% 
  group_by(State) %>% 
  summarize(Trips = sum(Trips)) -> holidays

holidays

# A tsibble: 640 x 3 [1Q]
# Key:       State [8]
   State Quarter Trips
   <chr>   <qtr> <dbl>
 1 ACT   1998 Q1  196.
 2 ACT   1998 Q2  127.
 3 ACT   1998 Q3  111.
 4 ACT   1998 Q4  170.
 5 ACT   1999 Q1  108.
 6 ACT   1999 Q2  125.
 7 ACT   1999 Q3  178.
 8 ACT   1999 Q4  218.
 9 ACT   2000 Q1  158.
10 ACT   2000 Q2  155.
# ℹ 630 more rows
…
