Self Note of Forecasting: Principles and Practice - 3 Time Series with Spline Based Models
…
library(tidyverse)
library(fields)
library(earth)
library(mgcv)
library(forecast)

theme_set(theme_bw())

flu <- read_csv("https://raw.githubusercontent.com/asbates/nonlinear-models/master/data/ilinet-calif-up-to-2019-03-31.csv") %>% 
  mutate(t = 1:nrow(.))

flu

# A tibble: 444 × 8
   week_start  year  week unweighted_ili ilitotal num_of_providers
   <date>     <dbl> <dbl>          <dbl>    <dbl>            <dbl>
 1 2010-10-03  2010    40           1.95      632              112
 2 2010-10-10  2010    41           2.15      742              122
 3 2010-10-17  2010    42           2.24      766              126
 4 2010-10-24  2010    43           1.92      666              130
 5 2010-10-31  2010    44           2.52      887              131
 6 2010-11-07  2010    45           2.75      906              126
 7 2010-11-14  2010    46           2.82     1020              131
 8 2010-11-21  2010    47           3.16      729              134
 9 2010-11-28  2010    48           2.61      939              135
10 2010-12-05  2010    49           3.06     1072              135
# ℹ 434 more rows
# ℹ 2 more variables: total_patients <dbl>, t <int>
…
3.4 Third Approach

Here four lags of the ilitotal will be used as the predictors.

flu %>% 
  mutate(
    lag_ilitotal = lag(ilitotal),
    lag2_ilitotal = lag(ilitotal, n = 2L),
    lag3_ilitotal = lag(ilitotal, n = 3L),
    lag4_ilitotal = lag(ilitotal, n = 4L),
  ) -> lagged_flu

lagged_flu

# A tibble: 444 × 12
   week_start  year  week unweighted_ili ilitotal num_of_providers
   <date>     <dbl> <dbl>          <dbl>    <dbl>            <dbl>
 1 2010-10-03  2010    40           1.95      632              112
 2 2010-10-10  2010    41           2.15      742              122
 3 2010-10-17  2010    42           2.24      766              126
 4 2010-10-24  2010    43           1.92      666              130
 5 2010-10-31  2010    44           2.52      887              131
 6 2010-11-07  2010    45           2.75      906              126
 7 2010-11-14  2010    46           2.82     1020              131
 8 2010-11-21  2010    47           3.16      729              134
 9 2010-11-28  2010    48           2.61      939              135
10 2010-12-05  2010    49           3.06     1072              135
# ℹ 434 more rows
# ℹ 6 more variables: total_patients <dbl>, t <int>, lag_ilitotal <dbl>,
#   lag2_ilitotal <dbl>, lag3_ilitotal <dbl>, lag4_ilitotal <dbl>
…
